111111111111111111111111111111
101010101010101010101010101011
111111111111111111111111111101
101101010101010101010101010111
111011111111111111111111111101
101110101010101010101010110111
111011111111111111111111011101
101110110101010101010101110111
111011101111111111111111011101
101110111010101010101101110111
111011101111111111110111011101
101110111011010101011101110111
111011101110111111110111011101
101110111011101101011101110111
111011101110111111110111011101
101110111011111111011101110111
111011101110101101110111011101
101110111011111111011101110111
111011101110101010110111011101
101110111011111111111101110111
111011101101010101010111011101
101110111111111111111101110111
111011101010101010101011011101
101110111111111111111111110111
111011010101010101010101011101
101111111111111111111111110111
111010101010101010101010101101
101111111111111111111111111111
110101010101010101010101010101
111111111111111111111111111111
